商品ID,SKU,是否可消耗,价格(浮点),本地价格(字符串),货币单位,
remove_ad,remove_ad,false,0.49,0.49,USD,
gold_key,gold_key,false,0.99,0.99,USD,
diamond500,diamond500,true,0.49,0.49,USD,
diamond1200_f,diamond1200_f,true,0.99,0.99,USD,
diamond3200_f,diamond3200_f,true,1.99,1.99,USD,
diamond7500_f,diamond7500_f,true,2.99,2.99,USD,
diamond20000_f,diamond20000_f,true,3.99,3.99,USD,
