{
  "WXPAY_APP_ID" : "wx954c6d95c3a69727",
  "ALIPAY_APP_ID": "2017092108848772",
  "SUB_CHANNEL_ID": "pujia8",
  "PURCHASE_BASE_URL": "https://www.pujia8.com/payment/unifiedpay/",
  "ACTIVE_ALIPAY": true,
  "ACTIVE_WXPAY": true,
  "USE_DEBUG_MODE": false
}